Lecture 11 Notes
…
poll %>%
  select(StartDate)

## # A tibble: 528 × 1
##    StartDate 
##    <chr>     
##  1 10/31/2020
##  2 10/31/2020
##  3 10/29/2020
##  4 11/1/2020 
##  5 11/1/2020 
##  6 10/30/2020
##  7 10/31/2020
##  8 10/30/2020
##  9 10/29/2020
## 10 10/29/2020
## # ℹ 518 more rows
…
