Data Wrangling in R
…
```r
MI_raw <- readRDS('../data/MI2020_ExitPoll.rds')
```

--

- And take a look

```r
MI_raw
```

```
## # A tibble: 1,231 × 63
##       ID WEIGHT LALVOTERID  GROUP   ZIP DISTRICT    Z1    S1
##    <dbl>  <dbl> <chr>       <hvn> <dbl>    <dbl> <dbl> <hvn>
##  1     9  0.405 LALMI62900…     3 49327        2    NA     1
##  2    66  1.81  LALMI24924…     1 48234       14    NA     1
##  3   225  0.860 LALMI54898…     4 48301        9 48322     1
##  4   243  0.199 LALMI50537…     1 48130        7 48130     1
##  5   286  0.177 LALMI68316…     1 49946        1    NA     1
##  6   293  0.492 LALMI40197…     1 48615        4    NA     1
##  7   365  1.37  LALMI41513…     1 48906        4 48813     1
##  8   367  1.15  LALMI59125…     1 49442        2    NA     1
##  9   388  1.50  LALMI66350…     1 48451        5    NA     1
## 10   417  1.30  LALMI35671…     1 48197       12    NA     1
## # ℹ 1,221 more rows
## # ℹ 55 more variables: S2A <hvn_lbl_>, S2B <hvn_lbl_>,
## #   S3 <hvn_lbl_>, S4 <hvn_lbl_>, VERSION <hvn_lbl_>,
## #   PRSMI20 <hvn_lbl_>, SENMI20 <hvn_lbl_>,
## #   TIME16 <hvn_lbl_>, ISSUE20 <hvn_lbl_>,
## #   QLT20 <hvn_lbl_>, TEMPBIDEN <hvn_lbl_>,
## #   TEMPTRUMP <hvn_lbl_>, CONTROLSEN <hvn_lbl_>, …
```
…
